An example of using the zipfs package on the text of Dracula • zipfs
…
Use book_meta() to extract useful book meta data from a Gutenberg book. You need to provide the lines from header:

book_meta(dracula[1:20])
#> # A tibble: 1 x 3
#>   author      title   release                     
#>   <chr>       <chr>   <chr>                       
#> 1 Bram Stoker Dracula August 16, 2013 [EBook #345]

count_words() counts occurrences of every word in a character string

word_frequency <- count_words(dracula)
word_frequency
#> # A tibble: 10,864 x 2
#>    word      n
#>    <chr> <dbl>
#>  1 the    8037
#>  2 and    5896
#>  3 i      4712
#>  4 to     4540
#>  5 of     3738
#>  6 a      2961
#>  7 in     2558
#>  8 he     2543
#>  9 that   2455
#> 10 it     2141
#> # … with 10,854 more rows
…
